Testing testAVL
Wake
cheering
echoes
her
name
the
up
The maximum value is up
The minimum value is Wake
The test for whether testAVL contains echoes returns 1
The test for whether testAVL contains Notre returns 0
Testing testAVL2 after removing Wake
cheering
echoes
her
name
the
up
The test for whether testAVL2 contains Wake returns 0
