Inserting 10 processes into the scheduler
After insertion, the RBTree Processes are: 
Inorder: 
(8, 53)  (4, 108)  (5, 116)  (3, 174)  (7, 192)  (9, 750)  (6, 778)  (0, 780)  (2, 933)  (1, 996)  

The leftmost process is (8, 53) 

After deletion, the RBTree Processes are: 
Inorder: 
(4, 108)  (5, 116)  (3, 174)  (7, 192)  (9, 750)  (6, 778)  (0, 780)  (2, 933)  (1, 996)  
